<svg width="45" height="45" viewBox="0 0 45 45" fill="none" xmlns="http://www.w3.org/2000/svg">
<path d="M22.2058 16.5225C22.6291 16.6886 23.0444 16.2822 22.9041 15.8498C21.941 12.8819 18.4538 11.7747 15.2121 14.4079C13.5069 15.7931 12.8661 16.0874 12.85 16.0949C13.9741 17.2188 15.2584 20.9904 18.0611 21.4075C21.1485 21.9672 23.8811 18.9297 21.6454 17.5397C20.1752 16.6257 18.4441 16.0948 16.5885 16.0948C18.5338 15.6563 20.4758 15.8443 22.2058 16.5225Z" fill="#8B09FF"/>
<path d="M36.1861 14.4077C30.5903 9.8623 27.0216 17.0304 29.2399 16.3198C30.8154 15.8152 32.5377 15.7053 34.2654 16.0947C31.3382 16.0947 28.6399 17.4361 26.8408 19.6197C26.9886 16.1882 27.2121 14.0403 27.4712 12.4426C28.9664 12.3912 30.9593 11.1837 32.0538 9.07084C33.9406 5.6942 33.0656 2.23203 32.784 0.0473938C31.3097 1.48304 24.8695 -0.199159 22.3165 4.17574C21.1887 6.1083 21.5165 8.45998 22.7029 10.1809C23.0784 10.7257 23.9764 10.4643 24.002 9.80317C24.1134 6.92706 25.5448 4.75407 28.2133 3.55052C27.0159 5.10202 26.2297 6.83902 25.8235 8.63436C25.1922 11.4311 24.5327 13.2656 24.2906 22.1796C24.266 23.0836 24.9983 23.8319 25.9026 23.8205C26.5572 23.8123 27.118 23.3969 27.3698 22.7925C27.7527 21.8734 28.3759 20.9221 29.39 20.0505C30.3537 21.1158 31.8202 21.6826 33.3375 21.4074C36.1283 20.9921 37.4307 17.2123 38.5485 16.0946C38.5322 16.0873 37.8913 15.793 36.1861 14.4077Z" fill="#8B09FF"/>
<path d="M44.4121 25.5143C42.6628 24.3274 40.7588 25.1732 39.8844 25.6781L28.9117 33.7091L22.4869 33.7105L20.8806 32.1043H26.781C28.5556 32.1043 30.543 30.9484 30.543 28.8912C30.543 26.707 28.5556 25.6781 26.781 25.6781H24.5699C22.9274 25.6781 21.0078 25.8245 19.6544 25.1C18.3685 24.4457 16.8878 24.0734 15.3072 24.0734C12.6531 24.0734 10.2776 25.1315 8.64981 26.8001L0 35.3153L9.63722 44.9525L12.8496 40.1339H28.0299C29.6488 40.1339 31.2115 39.54 32.4218 38.4648L44.522 27.7158C45.1947 27.1183 45.1567 26.0196 44.4121 25.5143Z" fill="#8B09FF"/>
</svg>
